{
	"audio": "pipewire",
	"bootloader": "grub-install",
	"filesystem": "btrfs",
	"gfx_driver": "VMware / VirtualBox (open-source)",
	"harddrive": {
		"path": "/dev/vda2"
	},
	"harddrives": ["/dev/vda"],
	"hostname": "arch-vm",
	"kernels": [
		"linux-lts"
	],
	"keyboard-language": "us",
	"keyboard-layout": "us",
	"mirror-region": "United States",
	"nic": {
		"NetworkManager": true
	},
	"ntp": true,
	"packages": ["openssh"],
	"profile": "sway",
	"services": ["sshd"],
	"swap": true,
	"sys-encoding": "utf-8",
	"sys-language": "en_US",
	"timezone": "US/Pacific",
	"users": {},
	"version": "2.3.1"
}
